0,10,20,30,40,50,60,70
0.905686,0.981097,1.061230,1.111487,1.202018,1.273282,1.358098,1.898057
0.900086,0.972099,1.311868,1.154260,1.254599,1.263567,1.273665,1.534291
0.903754,0.980131,1.043075,1.106952,1.210794,1.263802,1.349611,2.399099
0.900879,1.176547,1.274630,1.146309,1.195192,1.256285,1.363194,1.472919
0.901019,0.974277,1.044174,1.137544,1.182550,1.280219,1.344053,2.658532
0.899115,0.984175,1.046425,1.120540,1.188432,1.234050,1.347069,2.173999
0.900301,0.975461,1.468925,1.207926,1.227729,1.271812,1.407872,2.205319
0.902875,0.976198,1.045604,2.389331,1.721625,1.597501,1.387962,1.448474
0.899628,1.148723,1.038682,1.112794,1.178229,1.274953,3.536651,2.382241
0.900401,1.015515,1.044773,2.408620,1.207671,1.271711,1.895510,1.444427
0.900084,0.984683,1.041393,1.111338,1.198790,1.259141,1.623526,2.739857
0.899062,0.979046,1.040627,1.851326,1.236875,1.270826,1.379007,2.652851
0.899531,0.973084,1.037857,1.120335,1.200560,1.269985,1.352462,3.281761
0.899812,0.981129,1.193998,1.124800,1.269193,1.262367,1.865700,1.425783
0.899171,0.982071,1.461061,1.152253,1.220592,1.280726,1.344176,2.078898
0.899550,0.983541,1.040914,1.171716,1.202290,1.298674,2.527928,1.437976
0.901530,0.982148,1.051214,1.114235,1.198538,1.267195,2.094882,2.652424
0.901288,0.975152,1.044399,1.129076,1.174711,2.413424,1.356207,1.452967
0.899327,0.985488,1.814301,1.132144,1.204965,1.277776,1.376016,1.522459
0.898788,1.032816,1.048095,1.107734,1.196815,2.192975,1.342737,1.444593
0.900320,0.975861,1.050058,1.113729,1.198572,1.275324,2.482194,1.431806
0.902790,0.986153,1.214339,1.133530,1.245909,1.315372,1.356395,1.575463
0.899553,0.983487,1.041053,1.116527,1.192376,1.283669,1.402262,1.491416
0.901942,1.013759,1.045570,1.127322,1.877275,1.262315,1.656598,1.778705
0.901060,1.016220,1.042160,1.109949,1.175148,1.280304,2.532945,1.425979
0.900058,0.994066,1.049151,1.155478,1.173867,1.257987,1.364144,1.672581
0.899833,0.980075,1.043927,1.121613,1.187019,1.279576,1.416445,1.421976
0.901832,0.984371,1.050652,1.102283,1.193183,1.282193,1.771270,1.503059
0.902070,0.980528,1.047363,1.403708,1.222920,1.270918,1.520019,1.447744
0.900160,0.981667,1.762137,1.155188,1.171404,1.272663,1.480129,2.856441
0.899378,0.985702,1.042628,1.119194,1.181540,1.273005,1.389296,1.426900
0.899986,0.982172,1.036993,1.111008,1.187912,1.271196,1.466172,1.851576
0.900474,0.984697,1.041061,1.118406,1.510024,1.259901,2.232389,1.422956
0.899020,1.135609,1.043960,1.113521,1.261731,1.268461,1.348683,1.541632
0.901010,0.985947,1.036303,1.146969,1.198862,2.971986,1.273803,1.253762
0.899852,0.981960,1.138237,1.152078,1.174095,1.311332,1.483344,1.431441
0.901302,0.985029,1.044654,1.110580,1.166068,1.274536,1.360099,1.439246
0.899393,0.981500,1.043991,2.036601,1.163394,1.279515,1.472006,1.509837
0.898825,0.977390,1.046577,1.611872,1.174723,1.278495,1.360969,1.461139
0.901280,0.989476,1.047823,1.108077,1.176945,1.325167,1.372523,1.442827